Preprocessing Data
…
No primary key

Sometimes a table doesn’t have an explicit primary key, e.g.  in flights dataset each row is an observation, but no combination of variables reliably identifies it, (even the flight numbers).

In this case, you can add an extra identifier column:

flights %>% 
  count(flight) %>% 
  filter(n > 1) 

## # A tibble: 3,493 x 2
##    flight     n
##     <int> <int>
##  1      1   701
##  2      2    51
##  3      3   631
##  4      4   393
##  5      5   324
##  6      6   210
##  7      7   237
##  8      8   236
##  9      9   153
## 10     10    61
## # … with 3,483 more rows

flights %>%
  mutate(flight_id= paste0("F", row_number())) %>%
  select(flight_id, year:flight)

## # A tibble: 336,776 x 12
##    flight_id  year month   day dep_time sched_dep_time dep_delay arr_time
##    <chr>     <int> <int> <int>    <int>          <int>     <dbl>    <int>
##  1 F1         2013     1     1      517            515         2      830
##  2 F2         2013     1     1      533            529         4      850
##  3 F3         2013     1     1      542            540         2      923
##  4 F4         2013     1     1      544            545        -1     1004
##  5 F5         2013     1     1      554            600        -6      812
##  6 F6         2013     1     1      554            558        -4      740
##  7 F7         2013     1     1      555            600        -5      913
##  8 F8         2013     1     1      557            600        -3      709
##  9 F9         2013     1     1      557            600        -3      838
## 10 F10        2013     1     1      558            600        -2      753
## # … with 336,766 more rows, and 4 more variables: sched_arr_time <int>,
## #   arr_delay <dbl>, carrier <chr>, flight <int>
…
Mutating joins, which add new variables to one data frame from matching observations in another.

Filtering joins, which filter observations from one data frame based on whether or not they match an observation in the other table.

Set operations, which treat observations as if they were set elements.

Mutating joins

A mutating join allows you to combine variables from two tables, by matching observations by their keys, and then copying across variables from one table to the other. e.g.

flights %>%
  select(year:day, hour, origin, dest, tailnum, carrier) %>% 
  left_join(airlines, by = "carrier")

## # A tibble: 336,776 x 9
##     year month   day  hour origin dest  tailnum carrier name                    
##    <int> <int> <int> <dbl> <chr>  <chr> <chr>   <chr>   <chr>                   
##  1  2013     1     1     5 EWR    IAH   N14228  UA      United Air Lines Inc.   
##  2  2013     1     1     5 LGA    IAH   N24211  UA      United Air Lines Inc.   
##  3  2013     1     1     5 JFK    MIA   N619AA  AA      American Airlines Inc.  
##  4  2013     1     1     5 JFK    BQN   N804JB  B6      JetBlue Airways         
##  5  2013     1     1     6 LGA    ATL   N668DN  DL      Delta Air Lines Inc.    
##  6  2013     1     1     5 EWR    ORD   N39463  UA      United Air Lines Inc.   
##  7  2013     1     1     6 EWR    FLL   N516JB  B6      JetBlue Airways         
##  8  2013     1     1     6 LGA    IAD   N829AS  EV      ExpressJet Airlines Inc.
##  9  2013     1     1     6 JFK    MCO   N593JB  B6      JetBlue Airways         
## 10  2013     1     1     6 LGA    ORD   N3ALAA  AA      American Airlines Inc.  
## # … with 336,766 more rows
…
